"id_assign";"id_adLocal";"codeEtab_assign"
"1";"26";"C00123"
"2";"29";" C00123"
"3";"30";"C00123"
"4";"31";"C00123"
"5";"34";"C00123"
"6";"39";"C0023"
"7";"49";"C0023"
"8";"50";"C0023"
"9";"51";"C00101"
"10";"53";"C100"
"11";"73";"C007860"
"12";"125";"C00124"
"13";"128";"C002"
"14";"129";"C002"
"15";"168";"AERR"
"16";"239";"010061"
"17";"382";"AERR"
"18";"443";"875139"
"19";"1382";"875139"
"20";"1384";"875137"
"21";"1564";"C0055"
"22";"1571";"C0012344A"
"23";"1596";"0001"
