classe;;;;;;;;;;;;;;;;;;SIL;120000;80000;250000;;;
classe;;;;;;;;;;;;;;;;;;SIL;120000;80000;250000;;;
enseignant;0065RTK;;;NCHA ;Ernestine;10/04/1987;Douala;F;673 40 04 16;ncha@gmail.com;MARIE;Camerounaise;10/01/2007;1;350000;290000;1;;;;;;;
matiere;;;;;;;;;;;;;;;;;;;;;;;SVT 1;1
matiere;;;;;;;;;;;;;;;;;;;;;;;SVT 2;1
classe;;;;;;;;;;;;;;;;;;CP;120000;80000;250000;;;
enseignant;0065RTKGH;;;LEBOU;Jean;10/04/1987;Douala;M;673 40 04 10;lebou@gmail.com;MARIE;Camerounaise;10/01/2007;1;350000;290000;1;;;;;;;
matiere;;;;;;;;;;;;;;;;;;;;;;;CHIMIE;1
