classe;;;;;;;;;;;;;;;;;;TERMINAL C;120000;80000;250000;;;
enseignant;0065RTK;0988XT76;MCU;KOUAKOU;YAO ANGE;10/04/1987;DIMBOKRO;M;55654090;angekouakou@gmail.com;MARIE;IVOIRIENNE;10/01/2007;1;350000;290000;1;;;;;;;
matiere;;;;;;;;;;;;;;;;;;;;;;;MATHEMATIQUES;4
