type;matricule;nom;prenom;datenais;lieunais;tel;email;fonction;cni;nationalite;lieuH;situation;nbchild;login;pass;statut;sexe;societe;adresse;telburo;doublant;affecter;classe;codeEtab;session;addid;suivant
parent;;TALLA;jean2;20/10/1998;Dla;55664433225;xx@gmail.om;Ingenieur;14HOOP;IVOIRIENNE;COCODY;MARIE;5;yyyy;azerty;1;M;Orange;Orange CI;7888999;;;;C0012AXX;2019-2020;;
eleve;MAT00123DC;TALLA ;jean Fils1;20/12/2008;Dla;;xx@gmail.om;eleve;;IVOIRIENNE;COCODY;;;hhhh;azerty1;1;M;;Orange CI;;1;;19;C0012AXX;2019-2020;;0
